{
  "config":{
    "orgs":{
      "org-services":{
        "name":"comcast",
        "tdf":{
          "subscribers":{
            "extensive":{
              "id":"74:54:7d:7f:9d:e2",
              "report_count":"35",
              "report_interval":"3600",
              "tcp-session":"0",
              "udp-session":"0",
              "other-session":"0",
              "high-priority-report-count":"0",
              "usage-report-user-data":"0",
              "usage-report-duration":"3600",
              "usage-report-start-time":"2019-05-02, 14:50:07",
              "subscriber_create_time":"2019-04-24, 13:25:20",
              "subscriber_update_time":"2019-05-02, 15:40:32",
              "dhcp_v4_relay_agent":"10.254.205.1",
              "dhcp_v6_relay_agent":"2001:558:ff89:239::1",
              "cm_mac":"74:54:7d:7f:9d:e2",
              "cm_ipv6_host":"2001:558:ff89:239:7654:7dff:fe7f:9de2",
              "cm_ipv6_learnt_from":"DHCP Broadcast Snoop",
              "cm_ip_update_time":"2019-05-02, 13:28:53",
              "cm_lease_expiry":"2019-05-03, 13:28:53",
              "mta_mac":"74:54:7d:7f:9d:e3",
              "mta_ipv4_host":"10.254.205.214",
              "mta_ipv4_learnt_from":"DHCP Unicast Snoop",
              "mta_ip_update_time":"2019-05-02, 15:40:32",
              "mta_lease_expiry":"2019-05-02, 16:00:32",
              "cpe_info___":[
                {
                  "cpe_mac":"74:54:7d:7f:9d:e4",
                  "cpe_ipv4_host":"10.254.206.85",
                  "cpe_ipv4_learnt_from":"DHCP Unicast Snoop",
                  "cpe_ipv4_update_time":"2019-05-02, 15:21:13",
                  "cpe_ipv4_lease_expiry":"2019-05-02, 16:21:13",
                  "cpe_ipv6_host":"2001:558:ff89:a58e:e8ce:fc15:30c7:317b",
                  "cpe_ipv6_learnt_from":"DHCP Broadcast Snoop",
                  "cpe_ipv6_update_time":"2019-05-02, 15:25:31",
                  "cpe_ipv6_lease_expiry":"2019-05-02, 16:25:31",
                  "cpe_ipv6_prefix":"2001:558:ff89:b995::",
                  "cpe_ipv6_prefix_len":"64",
                  "cpe_ipv6_prefix_learnt_from":"DHCP Broadcast Snoop",
                  "cpe_ipv6_prefix_update_time":"2019-05-02, 15:38:44",
                  "cpe_ipv6_prefix_lease_expiry":"2019-05-02, 16:38:33"
                }
              ],
              "rule-info":[
                {
                  "name":"r_dscp_9",
                  "uplink_ipv4_bytes":"0",
                  "downlink_ipv4_bytes":"0",
                  "uplink_ipv6_bytes":"0",
                  "downlink_ipv6_bytes":"0",
                  "uplink_ipv4_bytes_prev":"0",
                  "downlink_ipv4_bytes_prev":"0",
                  "upLink_ipv6_bytes_prev":"0",
                  "downlink_ipv6_bytes_prev":"0"
                },
                {
                  "name":"r_dscp_8",
                  "uplink_ipv4_bytes":"0",
                  "downlink_ipv4_bytes":"0",
                  "uplink_ipv6_bytes":"0",
                  "downlink_ipv6_bytes":"0",
                  "uplink_ipv4_bytes_prev":"0",
                  "downlink_ipv4_bytes_prev":"0",
                  "upLink_ipv6_bytes_prev":"0",
                  "downlink_ipv6_bytes_prev":"0"
                },
                {
                  "name":"r_dscp_7",
                  "uplink_ipv4_bytes":"0",
                  "downlink_ipv4_bytes":"0",
                  "uplink_ipv6_bytes":"0",
                  "downlink_ipv6_bytes":"0",
                  "uplink_ipv4_bytes_prev":"0",
                  "downlink_ipv4_bytes_prev":"0",
                  "upLink_ipv6_bytes_prev":"0",
                  "downlink_ipv6_bytes_prev":"0"
                },
                {
                  "name":"r_dscp_6",
                  "uplink_ipv4_bytes":"0",
                  "downlink_ipv4_bytes":"0",
                  "uplink_ipv6_bytes":"26340",
                  "downlink_ipv6_bytes":"22180",
                  "uplink_ipv4_bytes_prev":"0",
                  "downlink_ipv4_bytes_prev":"0",
                  "upLink_ipv6_bytes_prev":"46522",
                  "downlink_ipv6_bytes_prev":"51454"
                },
                {
                  "name":"r_dscp_5",
                  "uplink_ipv4_bytes":"0",
                  "downlink_ipv4_bytes":"0",
                  "uplink_ipv6_bytes":"0",
                  "downlink_ipv6_bytes":"0",
                  "uplink_ipv4_bytes_prev":"0",
                  "downlink_ipv4_bytes_prev":"0",
                  "upLink_ipv6_bytes_prev":"0",
                  "downlink_ipv6_bytes_prev":"0"
                },
                {
                  "name":"r_dscp_4",
                  "uplink_ipv4_bytes":"0",
                  "downlink_ipv4_bytes":"0",
                  "uplink_ipv6_bytes":"0",
                  "downlink_ipv6_bytes":"0",
                  "uplink_ipv4_bytes_prev":"0",
                  "downlink_ipv4_bytes_prev":"0",
                  "upLink_ipv6_bytes_prev":"0",
                  "downlink_ipv6_bytes_prev":"0"
                },
                {
                  "name":"r_dscp_3",
                  "uplink_ipv4_bytes":"10804",
                  "downlink_ipv4_bytes":"0",
                  "uplink_ipv6_bytes":"6192",
                  "downlink_ipv6_bytes":"0",
                  "uplink_ipv4_bytes_prev":"23712",
                  "downlink_ipv4_bytes_prev":"0",
                  "upLink_ipv6_bytes_prev":"15295",
                  "downlink_ipv6_bytes_prev":"0"
                },
                {
                  "name":"r_dscp_2",
                  "uplink_ipv4_bytes":"0",
                  "downlink_ipv4_bytes":"2380",
                  "uplink_ipv6_bytes":"0",
                  "downlink_ipv6_bytes":"10808",
                  "uplink_ipv4_bytes_prev":"0",
                  "downlink_ipv4_bytes_prev":"2856",
                  "upLink_ipv6_bytes_prev":"0",
                  "downlink_ipv6_bytes_prev":"25151"
                }
              ]
            }
          }
        }
      }
    }
  }
}